{
  "extras": [
    "lazyvim.plugins.extras.coding.mini-comment",
    "lazyvim.plugins.extras.coding.mini-surround",
    "lazyvim.plugins.extras.editor.overseer",
    "lazyvim.plugins.extras.lang.clangd",
    "lazyvim.plugins.extras.lang.json",
    "lazyvim.plugins.extras.lang.markdown",
    "lazyvim.plugins.extras.lang.rust",
    "lazyvim.plugins.extras.lang.toml",
    "lazyvim.plugins.extras.util.mini-hipatterns"
  ],
  "news": {
    "NEWS.md": "7429"
  },
  "version": 7
}